%YAML 1.1
%TAG !u! tag:unity3d.com,2011:
--- !u!74 &7400000
AnimationClip:
  m_ObjectHideFlags: 0
  m_CorrespondingSourceObject: {fileID: 0}
  m_PrefabInstance: {fileID: 0}
  m_PrefabAsset: {fileID: 0}
  m_Name: AttackAnim3
  serializedVersion: 6
  m_Legacy: 0
  m_Compressed: 0
  m_UseHighQualityCurve: 1
  m_RotationCurves: []
  m_CompressedRotationCurves: []
  m_EulerCurves: []
  m_PositionCurves: []
  m_ScaleCurves: []
  m_FloatCurves: []
  m_PPtrCurves:
  - curve:
    - time: 0
      value: {fileID: -4394666509432945631, guid: 688884112e1af554db26a9e033c507f2,
        type: 3}
    - time: 0.1
      value: {fileID: 1577019542024561625, guid: 688884112e1af554db26a9e033c507f2,
        type: 3}
    - time: 0.23333333
      value: {fileID: -8900783197407247794, guid: 688884112e1af554db26a9e033c507f2,
        type: 3}
    - time: 0.33333334
      value: {fileID: -4607177337326594669, guid: 688884112e1af554db26a9e033c507f2,
        type: 3}
    - time: 0.43333334
      value: {fileID: -2069644726638787860, guid: 688884112e1af554db26a9e033c507f2,
        type: 3}
    - time: 0.56666666
      value: {fileID: -2712224971305321714, guid: 688884112e1af554db26a9e033c507f2,
        type: 3}
    - time: 0.6666667
      value: {fileID: -382029104279647875, guid: 688884112e1af554db26a9e033c507f2,
        type: 3}
    attribute: m_Sprite
    path: 
    classID: 212
    script: {fileID: 0}
  m_SampleRate: 60
  m_WrapMode: 0
  m_Bounds:
    m_Center: {x: 0, y: 0, z: 0}
    m_Extent: {x: 0, y: 0, z: 0}
  m_ClipBindingConstant:
    genericBindings:
    - serializedVersion: 2
      path: 0
      attribute: 0
      script: {fileID: 0}
      typeID: 212
      customType: 23
      isPPtrCurve: 1
    pptrCurveMapping:
    - {fileID: -4394666509432945631, guid: 688884112e1af554db26a9e033c507f2, type: 3}
    - {fileID: 1577019542024561625, guid: 688884112e1af554db26a9e033c507f2, type: 3}
    - {fileID: -8900783197407247794, guid: 688884112e1af554db26a9e033c507f2, type: 3}
    - {fileID: -4607177337326594669, guid: 688884112e1af554db26a9e033c507f2, type: 3}
    - {fileID: -2069644726638787860, guid: 688884112e1af554db26a9e033c507f2, type: 3}
    - {fileID: -2712224971305321714, guid: 688884112e1af554db26a9e033c507f2, type: 3}
    - {fileID: -382029104279647875, guid: 688884112e1af554db26a9e033c507f2, type: 3}
  m_AnimationClipSettings:
    serializedVersion: 2
    m_AdditiveReferencePoseClip: {fileID: 0}
    m_AdditiveReferencePoseTime: 0
    m_StartTime: 0
    m_StopTime: 0.68333334
    m_OrientationOffsetY: 0
    m_Level: 0
    m_CycleOffset: 0
    m_HasAdditiveReferencePose: 0
    m_LoopTime: 1
    m_LoopBlend: 0
    m_LoopBlendOrientation: 0
    m_LoopBlendPositionY: 0
    m_LoopBlendPositionXZ: 0
    m_KeepOriginalOrientation: 0
    m_KeepOriginalPositionY: 1
    m_KeepOriginalPositionXZ: 0
    m_HeightFromFeet: 0
    m_Mirror: 0
  m_EditorCurves: []
  m_EulerEditorCurves: []
  m_HasGenericRootTransform: 0
  m_HasMotionFloatCurves: 0
  m_Events: []
